<?xml version="1.0" standalone="no"?>
<!DOCTYPE svg PUBLIC "-//W3C//DTD SVG 20010904//EN"
 "http://www.w3.org/TR/2001/REC-SVG-20010904/DTD/svg10.dtd">
<svg version="1.0" xmlns="http://www.w3.org/2000/svg"
 width="1347.000000pt" height="1347.000000pt" viewBox="0 0 1347.000000 1347.000000"
 preserveAspectRatio="xMidYMid meet">
<metadata>
Created by potrace 1.11, written by Peter Selinger 2001-2013
</metadata>
<g transform="translate(0.000000,1347.000000) scale(0.100000,-0.100000)"
fill="#000000" stroke="none">
<path d="M8120 13270 c0 -5 4 -10 9 -10 6 0 13 5 16 10 3 6 -1 10 -9 10 -9 0
-16 -4 -16 -10z"/>
<path d="M8120 12809 c0 -5 5 -7 10 -4 6 3 10 8 10 11 0 2 -4 4 -10 4 -5 0
-10 -5 -10 -11z"/>
<path d="M8146 12791 c-19 -19 -24 -31 -16 -36 8 -5 8 -11 -3 -23 -15 -19 -20
-59 -7 -67 5 -3 4 -20 -1 -38 -11 -39 -11 -37 2 -37 7 0 18 8 25 18 12 15 13
14 14 -13 0 -16 5 -37 11 -45 8 -12 9 -9 5 12 -6 28 8 48 18 26 3 -7 4 6 1 30
-3 25 -1 42 5 42 5 0 10 11 10 24 0 18 -6 26 -22 28 -12 2 -23 10 -26 18 -4
12 -2 13 9 3 18 -17 29 -16 29 2 0 8 -5 15 -11 15 -8 0 -8 4 1 15 9 11 9 18
-2 34 -14 20 -15 20 -42 -8z m24 -141 c0 -5 -4 -10 -10 -10 -5 0 -10 5 -10 10
0 6 5 10 10 10 6 0 10 -4 10 -10z"/>
<path d="M7960 12730 c0 -4 7 -11 16 -14 22 -8 24 -8 24 7 0 7 -9 13 -20 14
-11 1 -20 -2 -20 -7z"/>
<path d="M8125 12531 c-6 -11 9 -23 19 -14 9 9 7 23 -3 23 -6 0 -12 -4 -16 -9z"/>
<path d="M8074 12329 c-3 -6 -17 -9 -30 -6 -19 3 -24 0 -24 -17 0 -19 5 -21
35 -18 37 4 61 24 50 42 -8 13 -22 13 -31 -1z"/>
<path d="M5294 12323 c-9 -3 -9 -10 0 -28 6 -14 17 -23 24 -20 6 2 12 0 12 -5
0 -6 5 -10 10 -10 16 0 12 15 -12 42 -13 14 -28 24 -34 21z"/>
<path d="M5258 12272 c-22 -4 -22 -12 -4 -38 13 -17 15 -18 21 -2 10 26 2 44
-17 40z"/>
<path d="M8180 12250 c0 -5 7 -10 15 -10 8 0 15 5 15 10 0 6 -7 10 -15 10 -8
0 -15 -4 -15 -10z"/>
<path d="M8143 12213 c-25 -17 -29 -43 -11 -72 9 -15 9 -26 -2 -48 -19 -39
-21 -56 -8 -64 9 -6 8 -11 0 -22 -10 -12 -10 -18 3 -30 19 -19 19 -27 0 -41
-8 -6 -18 -26 -21 -44 -5 -27 -4 -31 9 -26 12 4 18 -2 22 -23 4 -15 8 -33 10
-40 2 -7 -2 -18 -8 -25 -22 -22 -29 -50 -31 -122 -1 -47 3 -70 11 -73 15 -6
18 -33 4 -33 -5 0 -9 -37 -9 -82 0 -46 -3 -95 -5 -111 -2 -15 0 -30 5 -33 5
-3 6 -15 2 -27 -12 -39 -24 -935 -14 -1020 5 -34 3 -51 -7 -59 -10 -8 -11 -13
-2 -18 8 -6 8 -13 0 -29 -7 -12 -10 -25 -7 -30 9 -14 16 -173 10 -208 -4 -22
-10 -30 -20 -26 -8 3 -14 0 -14 -5 0 -6 -12 -12 -27 -14 -14 -2 -29 -9 -31
-17 -4 -11 6 -13 51 -7 l56 6 -1 -57 c0 -32 1 -102 4 -156 2 -54 3 -99 1 -101
-2 -2 -5 -94 -7 -205 -1 -110 -5 -204 -9 -207 -4 -4 -2 -13 4 -21 9 -9 8 -17
0 -27 -8 -9 -10 -38 -7 -80 2 -37 0 -68 -5 -72 -5 -3 -7 -14 -4 -24 3 -11 1
-29 -5 -41 -10 -17 -9 -23 1 -30 10 -6 11 -13 1 -31 -6 -13 -14 -66 -17 -118
-11 -195 -25 -1247 -16 -1264 15 -29 -6 -157 -29 -180 -15 -15 -12 -26 6 -26
8 0 12 -5 9 -10 -4 -6 -1 -17 5 -25 7 -8 8 -15 3 -15 -5 0 -9 -25 -9 -55 0
-30 4 -55 9 -55 14 0 -4 -43 -29 -70 l-24 -26 21 -17 c17 -15 18 -21 8 -34 -7
-8 -24 -19 -37 -24 -15 -6 -22 -15 -19 -24 4 -8 1 -12 -6 -9 -15 5 -20 -34 -8
-51 13 -16 22 -93 12 -100 -18 -10 -40 -66 -34 -82 4 -10 2 -14 -4 -10 -13 8
-37 -18 -29 -32 3 -5 -1 -22 -9 -37 -19 -37 -19 -50 1 -58 13 -5 14 -9 4 -21
-9 -11 -17 -12 -32 -4 -24 13 -42 -6 -59 -64 -7 -20 -30 -54 -51 -76 -32 -31
-48 -39 -87 -43 -31 -3 -60 -14 -83 -31 -19 -15 -42 -27 -50 -27 -9 0 -33 -8
-55 -19 -53 -25 -102 -41 -143 -46 -19 -2 -60 -11 -90 -20 -108 -31 -126 -35
-172 -35 -26 0 -59 -5 -74 -10 -16 -7 -31 -7 -36 -2 -9 9 -112 -11 -148 -28
-8 -3 -54 -15 -103 -25 -66 -14 -93 -16 -110 -7 -12 6 -29 13 -37 16 -11 3 -9
6 8 11 25 8 26 18 13 128 -6 57 -5 70 8 77 12 7 13 12 5 17 -11 7 -19 54 -14
78 3 12 2 55 -2 75 -4 24 12 133 22 152 7 12 5 20 -6 26 -10 5 -18 26 -20 48
-2 21 -13 51 -24 67 -18 23 -19 31 -9 43 9 11 9 18 2 22 -6 4 -11 47 -11 105
0 54 -5 103 -10 110 -6 7 -10 34 -10 62 0 27 -5 51 -11 53 -14 5 -14 37 -1 63
8 14 7 19 -1 19 -7 0 -9 12 -6 33 2 17 -2 55 -9 84 -7 29 -15 72 -16 95 -2 24
-6 45 -10 48 -10 8 -13 139 -4 168 5 14 3 22 -4 22 -7 0 -9 8 -5 20 4 13 1 22
-8 26 -11 4 -15 25 -16 82 -1 42 -2 95 -3 117 -1 22 2 55 6 73 4 18 4 38 -1
45 -9 12 -15 64 -16 140 -1 20 -4 37 -8 37 -9 0 -5 113 5 128 4 7 4 17 0 24
-11 17 -12 71 -1 85 5 7 7 19 4 28 -4 8 -2 17 4 21 6 4 4 10 -5 17 -9 7 -15
27 -15 47 1 19 -4 58 -9 85 -7 36 -6 52 2 58 8 5 6 11 -6 20 -11 9 -13 18 -7
29 10 17 7 53 -4 64 -4 4 -7 22 -7 39 0 18 -7 38 -15 45 -12 10 -13 15 -4 21
9 5 10 11 2 21 -13 17 -16 98 -3 98 6 0 10 5 10 10 0 6 -11 10 -25 10 -25 0
-33 14 -15 25 6 3 10 15 10 26 0 10 -4 19 -10 19 -5 0 -10 5 -10 11 0 5 4 8 9
5 5 -3 14 1 21 8 9 12 7 17 -11 27 -22 11 -22 12 -4 25 14 10 16 17 8 25 -6 6
-9 17 -7 23 3 7 -1 26 -7 42 -7 16 -13 37 -14 47 -2 10 -10 43 -20 72 -17 50
-17 54 -2 70 10 9 14 22 10 28 -5 8 -8 8 -11 -1 -9 -28 -24 -10 -19 22 3 22 1
39 -7 45 -7 6 -19 37 -26 68 -17 73 -31 91 -69 85 -22 -3 -34 -13 -45 -37 -9
-18 -16 -38 -16 -44 0 -6 -5 -11 -11 -11 -6 0 -9 -6 -6 -14 3 -7 -1 -23 -9
-35 -8 -12 -12 -26 -8 -33 14 -22 24 -177 12 -184 -14 -9 -9 -34 7 -34 12 0
15 -11 12 -53 -2 -29 -6 -58 -11 -65 -4 -7 -2 -19 4 -27 11 -14 20 -139 24
-330 0 -44 4 -85 8 -91 4 -6 8 -33 8 -60 0 -27 0 -60 0 -73 0 -14 -7 -32 -15
-41 -8 -9 -12 -20 -8 -24 5 -4 9 -86 10 -182 1 -96 4 -188 8 -204 5 -21 3 -30
-6 -30 -10 0 -10 -3 -1 -12 7 -7 12 -28 12 -48 0 -20 5 -41 10 -46 7 -7 8 -30
2 -69 -10 -59 -6 -95 9 -95 4 0 13 -19 20 -42 6 -24 16 -49 21 -56 8 -9 6 -18
-6 -31 -13 -14 -15 -24 -8 -38 5 -10 12 -42 16 -72 4 -30 14 -60 22 -66 11 -8
13 -17 6 -35 -9 -26 -8 -218 2 -227 3 -3 3 -17 0 -30 -4 -15 -1 -28 9 -36 18
-15 30 -160 13 -177 -7 -7 -6 -10 3 -10 9 0 11 -8 7 -25 -4 -14 -3 -25 2 -25
11 0 12 -109 1 -116 -5 -3 -7 -20 -4 -37 13 -70 12 -179 -2 -184 -17 -6 -17
-40 0 -46 9 -3 9 -7 0 -19 -8 -9 -14 -61 -17 -135 -2 -67 -9 -130 -14 -140 -5
-10 -8 -36 -5 -58 9 -100 9 -174 -2 -166 -6 5 -15 3 -23 -5 -11 -12 -9 -14 13
-14 22 0 26 -4 23 -22 -3 -22 -7 -23 -111 -25 -64 -1 -114 -6 -122 -13 -8 -6
-23 -9 -35 -5 -12 4 -27 1 -36 -6 -8 -6 -18 -9 -21 -5 -4 4 -1 11 7 16 14 9
11 9 -110 10 -40 0 -43 2 -27 14 14 11 17 22 11 51 -3 20 -12 42 -19 48 -6 6
-10 19 -7 29 2 10 0 18 -5 18 -5 0 -8 26 -8 58 1 31 -3 63 -8 70 -5 7 -11 38
-12 70 -1 31 -5 65 -9 74 -4 9 -4 22 0 29 4 7 9 48 10 93 2 45 6 115 8 156 2
41 1 79 -2 85 -10 17 -11 85 -1 91 6 4 6 11 0 18 -6 7 -14 37 -17 67 -3 30 -7
59 -7 64 -1 6 -10 16 -19 23 -22 16 -23 42 -3 42 16 0 21 16 7 22 -12 4 -24
68 -13 68 4 0 8 18 9 41 2 32 -1 40 -13 35 -20 -7 -29 11 -10 21 16 9 16 37 2
61 -5 7 -3 12 7 12 9 0 13 6 10 14 -3 8 0 17 5 21 16 9 3 25 -20 25 -23 0 -24
6 -3 27 17 17 13 71 -6 83 -6 4 -6 18 0 39 5 17 7 38 5 44 -3 11 -18 243 -17
277 0 8 -4 40 -10 70 -13 64 -14 112 -4 128 4 6 2 30 -4 52 -8 29 -8 46 0 60
6 11 8 26 4 32 -18 28 -22 93 -8 109 13 14 13 18 -1 29 -19 16 -19 30 0 30 8
0 15 5 15 11 0 6 -6 9 -14 6 -8 -3 -17 3 -21 16 -11 31 -13 97 -3 97 4 0 5 6
3 13 -7 18 10 72 22 72 23 0 26 16 5 22 -16 4 -22 13 -22 35 0 16 4 27 8 24 4
-2 8 37 7 87 0 51 2 116 6 145 3 29 1 52 -4 52 -12 0 1 87 16 112 12 19 3 31
-43 58 -10 6 -11 12 -3 22 6 7 10 37 9 66 0 28 1 52 4 52 12 0 -3 146 -16 161
-18 20 -18 29 1 29 21 0 19 46 -3 62 -18 13 -25 58 -10 58 4 0 -1 14 -12 32
-10 17 -16 36 -13 42 11 17 8 67 -4 78 -19 15 -16 45 5 53 16 6 16 7 0 19 -11
8 -15 20 -12 33 3 12 1 31 -6 42 -6 12 -8 27 -4 33 15 24 24 168 11 168 -5 0
-4 7 3 15 7 9 14 28 16 43 2 15 5 44 8 64 2 24 -1 41 -10 49 -17 14 -18 45 -3
55 8 5 6 10 -5 16 -17 10 -22 43 -7 53 6 3 4 20 -5 41 -13 30 -19 60 -23 116
-1 4 -8 14 -17 23 -15 15 -15 17 2 30 17 12 17 17 5 50 -9 25 -11 56 -6 96 6
48 4 59 -8 59 -24 0 -39 114 -15 122 7 3 8 9 3 18 -5 7 -10 36 -11 64 -4 70
-12 169 -15 181 -1 6 2 19 6 29 6 13 4 21 -4 24 -9 3 -8 7 4 16 15 10 15 15
-1 51 -11 28 -13 44 -6 56 6 9 7 21 1 30 -5 8 -6 22 -3 31 3 10 0 26 -5 37 -7
13 -8 22 -1 26 6 4 5 19 -5 41 -10 25 -12 47 -6 78 6 31 4 48 -6 62 -9 13 -12
31 -8 56 6 34 4 39 -19 48 -14 5 -35 20 -47 34 -18 21 -24 23 -35 11 -8 -8
-13 -20 -12 -27 2 -7 -7 -17 -19 -22 -21 -10 -22 -14 -17 -117 2 -59 1 -110
-4 -113 -11 -7 -4 -87 10 -103 5 -7 6 -18 2 -25 -12 -19 -14 -91 -3 -104 6 -7
6 -22 -1 -38 -6 -18 -7 -42 0 -69 6 -26 5 -46 -1 -52 -5 -5 -9 -17 -9 -26 0
-10 -6 -20 -12 -22 -10 -4 -9 -8 2 -16 8 -6 19 -12 25 -14 5 -2 2 -16 -8 -30
-13 -21 -15 -32 -7 -46 14 -26 13 -31 -5 -31 -13 0 -15 -7 -9 -36 4 -22 2 -45
-6 -59 -10 -19 -10 -28 -1 -38 20 -25 2 -78 -30 -89 -31 -11 -35 -22 -19 -64
8 -19 8 -30 0 -38 -15 -15 -12 -23 9 -29 25 -6 35 -91 15 -124 -12 -19 -12
-23 0 -30 10 -5 15 -25 15 -53 1 -57 1 -69 4 -221 2 -106 0 -126 -12 -121 -10
4 -13 1 -8 -12 4 -10 7 -22 7 -28 0 -6 7 -7 16 -4 13 5 15 2 11 -15 -3 -12 0
-28 9 -36 20 -20 18 -39 -3 -22 -15 13 -16 10 -9 -31 4 -24 10 -49 14 -55 8
-11 7 -42 -6 -101 -5 -25 -5 -49 0 -58 7 -12 4 -18 -14 -25 -17 -7 -19 -10 -5
-10 18 -1 24 -21 6 -21 -6 0 -9 -7 -5 -15 3 -8 0 -15 -6 -15 -9 0 -9 -3 0 -12
19 -19 14 -37 -10 -43 -18 -5 -23 -13 -23 -38 0 -26 5 -33 23 -35 17 -3 22
-10 22 -32 0 -16 6 -31 13 -34 10 -5 10 -7 0 -12 -16 -7 -17 -34 -2 -34 6 0 8
-9 4 -21 -12 -38 -14 -93 -4 -105 7 -8 6 -14 -1 -19 -5 -3 -10 -13 -10 -21 0
-8 4 -13 8 -10 12 7 6 -114 -7 -127 -17 -17 -14 -96 5 -115 12 -11 15 -27 11
-56 -3 -22 -1 -48 4 -58 11 -21 14 -173 4 -205 -4 -13 -11 -23 -16 -23 -5 0
-9 -7 -9 -15 0 -8 8 -15 18 -15 14 0 15 -2 2 -10 -12 -7 -12 -12 4 -29 16 -17
18 -29 11 -73 -5 -29 -7 -71 -6 -93 1 -22 3 -77 4 -122 1 -46 6 -83 11 -83 4
0 6 -10 2 -23 -3 -13 1 -32 8 -43 11 -15 12 -38 6 -103 -5 -46 -11 -86 -14
-89 -3 -3 -1 -11 5 -19 19 -22 -3 -40 -86 -68 -31 -10 0 -23 63 -27 56 -3 69
-16 51 -50 -8 -15 -7 -24 7 -39 9 -10 12 -19 7 -19 -6 0 -10 -17 -8 -41 2 -32
0 -39 -12 -35 -11 5 -13 0 -8 -17 4 -15 3 -18 -3 -9 -13 19 -82 5 -82 -15 0
-13 10 -15 49 -11 28 3 54 2 59 -1 14 -8 22 -190 10 -197 -6 -4 -6 -9 2 -14 8
-5 11 -64 10 -206 -1 -109 -1 -270 -1 -358 1 -87 -3 -166 -8 -175 -7 -11 -5
-21 5 -33 14 -15 14 -19 0 -40 -15 -23 -15 -44 -1 -80 4 -11 3 -18 -4 -18 -6
0 -8 -7 -5 -15 4 -8 10 -13 14 -10 15 9 22 -15 9 -31 -7 -8 -11 -35 -9 -62 6
-108 4 -222 -3 -222 -5 0 -7 -6 -4 -12 2 -7 0 -21 -4 -30 -7 -12 -3 -21 12
-31 11 -8 20 -21 19 -28 -7 -46 -2 -49 66 -49 36 0 102 9 146 20 44 12 85 19
92 17 6 -3 -8 -8 -31 -12 -24 -4 -43 -11 -43 -16 0 -5 -7 -9 -15 -9 -9 0 -24
-14 -33 -31 -14 -24 -22 -29 -44 -26 -22 3 -28 -1 -28 -15 0 -19 -36 -26 -42
-7 -2 6 -32 11 -68 11 -36 0 -78 7 -94 16 -21 10 -64 15 -137 16 -64 0 -113 6
-119 12 -12 12 -109 7 -125 -7 -13 -13 -65 -11 -65 2 0 8 -22 10 -72 7 -40 -3
-147 -2 -237 2 -133 6 -166 11 -173 24 -5 9 -15 13 -26 9 -14 -6 -15 -4 -4 9
11 14 8 16 -23 20 -25 3 -35 0 -35 -10 0 -8 6 -12 14 -9 10 4 14 0 13 -14 -1
-14 -11 -20 -37 -24 -19 -3 -49 -10 -66 -15 -42 -14 -70 -12 -82 3 -11 13
-106 21 -192 18 -152 -7 -215 -13 -218 -21 -2 -6 -13 -10 -25 -10 -12 0 -29
-5 -37 -10 -11 -7 -8 -10 16 -10 40 0 49 -10 25 -27 -20 -13 -18 -51 2 -64 5
-4 7 -12 3 -18 -8 -12 -68 -3 -78 12 -4 7 -11 7 -21 -1 -7 -7 -17 -8 -22 -4
-4 4 -6 0 -3 -8 3 -10 23 -17 55 -21 28 -4 56 -9 61 -13 6 -3 32 -1 59 5 42
11 139 16 423 22 41 1 85 7 96 14 12 7 24 9 28 6 3 -3 6 -2 6 4 0 16 53 3 72
-18 16 -16 22 -16 69 -4 49 13 170 12 279 -2 62 -7 122 -11 230 -13 170 -4
220 -1 220 10 0 6 8 10 18 8 9 -1 23 1 30 6 7 4 19 3 27 -4 9 -7 15 -8 20 0
12 20 21 10 17 -20 l-4 -30 55 5 c36 3 58 1 63 -6 4 -7 9 -8 13 -1 4 7 22 7
51 2 27 -5 50 -4 57 1 7 7 13 6 18 0 4 -7 36 -9 81 -7 91 4 108 -9 21 -17 -77
-8 -197 -37 -197 -48 0 -5 -7 -9 -15 -9 -17 0 -20 -25 -5 -35 14 -9 12 -43 -2
-48 -10 -3 -10 -7 0 -20 8 -9 11 -25 7 -37 -4 -14 -2 -20 7 -18 10 2 12 -12
11 -57 -1 -32 2 -62 8 -66 12 -7 11 -190 -1 -241 -6 -29 -1 -168 7 -183 6 -10
7 -32 3 -51 -4 -18 -3 -37 2 -42 6 -6 6 -17 -1 -30 -14 -25 -14 -43 -1 -22 8
12 10 10 10 -10 0 -14 -4 -32 -9 -39 -6 -9 -6 -22 0 -33 6 -11 6 -18 0 -18
-12 0 -12 -223 1 -231 5 -3 2 -18 -6 -33 -11 -21 -11 -32 -2 -51 6 -14 17 -25
23 -25 9 0 10 -7 2 -27 -5 -15 -7 -44 -4 -64 4 -21 7 -78 7 -128 0 -50 4 -94
9 -97 5 -3 6 -10 3 -16 -4 -6 -1 -13 5 -17 9 -6 9 -15 1 -36 -8 -20 -8 -30 0
-35 7 -4 8 -15 2 -31 -5 -13 -8 -51 -7 -84 1 -33 -2 -65 -7 -72 -5 -7 -6 -18
-2 -25 5 -7 9 -65 10 -128 1 -63 7 -137 13 -164 9 -37 9 -52 -1 -63 -10 -12
-9 -17 3 -27 16 -12 19 -63 5 -85 -6 -9 -4 -18 8 -26 9 -7 14 -19 10 -29 -3
-9 -1 -16 5 -16 6 0 11 -11 11 -24 0 -14 4 -28 10 -31 5 -3 12 -28 16 -55 4
-28 10 -50 14 -50 11 0 22 -38 25 -82 1 -21 4 -41 5 -45 3 -12 6 -35 8 -65 1
-18 8 -28 18 -28 11 0 14 -6 9 -21 -5 -14 -4 -19 4 -15 6 4 9 1 5 -7 -6 -16
49 -61 60 -50 3 3 6 -1 6 -11 0 -13 5 -16 20 -11 13 4 20 2 21 -7 1 -7 5 1 8
17 4 17 4 34 -1 39 -4 6 -8 19 -8 30 0 16 -2 18 -9 7 -5 -7 -11 -9 -14 -4 -4
6 4 16 18 23 31 17 38 49 25 120 -8 42 -8 66 0 79 8 16 7 22 -6 29 -13 7 -14
15 -6 46 6 21 7 48 2 66 -6 21 -4 32 6 41 12 10 12 13 -3 24 -14 11 -15 15 -4
28 7 10 9 21 4 29 -4 7 -8 34 -9 61 -1 37 2 50 17 58 22 12 25 29 5 29 -12 0
-13 7 -5 32 5 18 9 55 9 81 0 27 4 56 9 65 5 10 5 40 -1 75 -7 42 -7 61 2 72
6 8 8 20 4 27 -5 7 -7 27 -5 44 1 18 -3 35 -9 39 -6 4 -8 20 -4 41 4 22 2 40
-6 50 -8 9 -14 51 -16 110 -1 52 -4 97 -6 100 -3 2 -4 31 -2 64 2 33 -1 62 -6
65 -11 7 -13 58 -3 68 11 12 14 127 2 127 -5 0 -7 5 -4 10 11 18 6 149 -6 172
-16 29 15 91 42 83 9 -3 20 -1 24 5 3 5 2 10 -3 10 -17 0 -52 37 -52 55 0 9 7
32 16 51 9 18 14 39 11 46 -2 7 -1 23 4 35 5 14 3 25 -5 32 -9 7 -13 48 -15
133 -1 68 -3 134 -5 148 -20 142 -20 147 7 165 14 9 37 17 52 19 28 3 53 30
37 40 -16 10 -62 -1 -82 -19 -25 -22 -36 -14 -20 15 6 12 9 24 6 27 -3 3 2 12
12 19 16 12 16 14 -5 29 -25 17 -32 70 -12 77 7 2 13 18 15 36 3 27 0 33 -24
39 l-27 7 35 9 c40 10 134 9 138 -1 1 -4 66 -6 144 -5 78 1 147 -1 152 -6 6
-5 23 -11 38 -15 24 -5 26 -11 30 -63 3 -41 0 -61 -9 -69 -9 -8 -10 -13 -4
-15 6 -2 12 -23 14 -45 1 -23 8 -48 15 -57 11 -13 10 -17 -4 -25 -11 -6 -14
-14 -8 -23 9 -15 14 -46 15 -89 0 -14 5 -35 11 -47 8 -17 8 -26 -1 -37 -8 -9
-11 -47 -10 -110 1 -53 -1 -99 -4 -103 -4 -3 -2 -11 3 -18 15 -18 20 -123 6
-129 -8 -3 -8 -7 1 -13 6 -5 11 -22 11 -39 -1 -17 2 -37 7 -43 13 -22 15 -321
2 -321 -7 0 -5 -5 5 -10 13 -8 15 -21 11 -72 -3 -35 -10 -68 -15 -75 -6 -7 -5
-14 2 -18 6 -4 8 -16 5 -26 -4 -11 -2 -26 4 -32 5 -7 10 -22 10 -32 -1 -11 2
-35 5 -54 3 -24 0 -38 -10 -46 -14 -10 -14 -13 -1 -23 11 -9 13 -22 7 -46 -4
-19 -5 -46 -3 -60 3 -14 0 -32 -6 -40 -9 -10 -7 -16 5 -26 9 -8 13 -22 10 -34
-2 -12 -1 -55 4 -96 5 -45 4 -82 -1 -92 -5 -10 -6 -18 -2 -18 24 0 44 -102 23
-115 -6 -4 -8 -10 -5 -15 3 -5 1 -11 -5 -15 -6 -4 -7 -13 -2 -23 10 -19 16
-68 16 -129 0 -29 5 -43 15 -45 11 -2 14 -21 14 -80 0 -62 3 -78 15 -78 10 0
12 -5 7 -17 -4 -10 -10 -42 -13 -70 -4 -47 -2 -53 14 -53 18 -1 18 -1 2 -11
-23 -13 -44 -89 -28 -99 6 -4 11 -16 9 -26 -1 -11 1 -26 4 -34 14 -33 24 -98
20 -127 -3 -17 0 -34 6 -37 6 -4 11 -17 11 -30 0 -12 5 -27 12 -34 9 -9 6 -12
-15 -12 -31 0 -35 -14 -10 -29 10 -5 15 -13 11 -17 -5 -4 -3 -13 3 -20 28 -34
46 -296 19 -279 -6 4 -10 1 -10 -4 0 -6 7 -11 16 -11 12 0 14 -5 8 -17 -4 -10
-8 -32 -8 -49 -1 -17 -7 -38 -14 -47 -11 -13 -10 -17 4 -25 13 -7 15 -16 10
-38 -11 -43 -7 -97 7 -106 9 -6 9 -10 -1 -20 -14 -14 -17 -68 -3 -68 12 0 25
-90 21 -142 -1 -7 1 -35 3 -63 3 -27 6 -81 6 -119 1 -54 4 -67 15 -63 11 5 13
0 6 -23 -5 -16 -12 -34 -15 -41 -4 -6 -3 -14 2 -18 6 -3 13 -16 17 -28 6 -18
4 -22 -8 -17 -9 3 -16 2 -16 -4 0 -5 7 -12 15 -16 15 -5 22 -76 8 -89 -12 -12
-8 -67 5 -67 6 0 13 -10 13 -22 5 -78 7 -119 13 -262 3 -88 10 -162 15 -165 5
-4 8 -17 8 -31 0 -14 3 -44 7 -68 4 -24 10 -65 12 -90 7 -99 15 -146 25 -159
8 -9 8 -17 1 -26 -15 -18 -2 -77 19 -90 19 -12 26 -37 11 -37 -20 0 -8 -46 18
-73 16 -16 26 -36 23 -43 -7 -19 31 -18 47 1 7 8 10 22 6 30 -3 8 -1 15 3 15
13 0 32 121 22 134 -15 19 -18 88 -5 125 8 25 9 40 2 49 -6 7 -8 32 -4 62 4
28 3 50 -1 50 -13 0 -6 576 7 595 12 17 20 93 10 97 -5 2 -6 18 0 43 5 23 5
89 0 155 -9 115 -10 182 -4 315 5 102 4 122 -5 205 -5 41 -5 80 0 86 5 6 4 15
-1 20 -5 5 -10 40 -11 77 -1 37 -5 69 -9 72 -4 2 -6 29 -5 60 2 30 -1 57 -4
60 -4 2 -7 31 -6 65 2 46 7 65 21 76 18 14 18 15 -4 30 -25 19 -29 44 -7 44
20 0 19 10 -2 27 -12 8 -13 12 -4 11 24 -5 23 19 -1 25 -21 6 -22 7 -5 19 14
11 16 19 9 38 -10 29 -16 103 -13 175 1 28 3 91 4 140 1 50 6 96 11 104 6 9 5
12 -1 8 -22 -14 -35 21 -28 73 4 27 3 50 -2 50 -4 0 -9 17 -9 37 -1 21 -4 56
-8 78 -16 106 -16 126 -6 145 8 14 8 25 2 33 -6 7 -13 33 -17 60 -6 36 -4 47
6 47 8 0 6 5 -6 13 -13 10 -16 21 -12 39 4 13 2 40 -4 59 -13 44 -18 111 -9
124 4 6 3 36 -3 68 -8 44 -8 70 2 105 9 35 9 47 0 53 -8 4 -10 25 -7 58 4 39
2 51 -8 51 -16 0 -19 46 -5 52 6 2 5 24 -1 55 -10 49 -9 57 18 108 28 54 28
57 11 70 -15 11 -17 17 -7 35 9 17 7 26 -8 47 -18 25 -18 29 -5 50 14 21 14
23 -5 23 -19 0 -20 3 -10 33 14 43 11 97 -7 117 -11 12 -13 28 -7 66 5 27 7
69 5 94 -1 25 3 58 9 73 8 21 8 31 -1 40 -8 8 -11 5 -11 -12 0 -14 -5 -21 -12
-18 -18 5 -22 218 -4 232 19 16 56 85 56 105 0 10 -5 22 -10 25 -6 4 -10 16
-8 28 2 13 -2 21 -9 20 -9 -2 -10 4 -4 20 4 12 7 38 5 57 -1 19 1 39 5 45 4 5
7 37 7 70 l-1 60 -60 6 c-33 3 -50 6 -37 7 12 1 33 8 45 16 12 8 54 17 94 19
42 3 82 12 95 21 28 20 58 20 72 1 12 -16 53 -13 194 15 34 7 64 8 87 1 38
-10 72 -5 95 15 8 7 47 18 85 25 50 9 82 22 110 43 22 17 41 34 43 38 2 4 28
12 58 19 31 7 65 22 78 36 27 26 144 61 155 46 27 -39 197 50 316 166 54 53
55 54 35 71 -24 21 -26 32 -5 24 9 -4 15 0 15 9 0 8 15 31 33 49 18 19 39 50
47 69 7 19 18 40 24 48 6 7 11 32 13 55 3 70 15 125 29 137 17 14 18 41 2 58
-9 9 -10 15 -2 18 7 2 9 24 6 59 -3 39 -1 59 8 64 7 4 14 25 15 46 2 22 7 50
12 64 9 24 13 54 15 125 2 57 -2 75 -17 75 -8 0 -15 7 -15 16 0 8 -4 12 -10 9
-6 -4 -10 6 -11 22 -1 15 -3 53 -4 82 -3 42 1 61 16 82 14 20 16 30 8 35 -9 5
-7 11 6 20 14 11 19 30 22 95 l3 81 -29 -7 c-36 -8 -42 6 -30 71 5 27 6 60 3
74 -12 41 -13 465 -2 600 5 69 10 145 9 170 -1 49 13 163 31 250 6 30 11 150
12 265 1 116 5 216 9 223 5 7 6 21 2 31 -9 28 -14 300 -6 305 4 3 5 60 4 128
-6 220 -8 471 -5 573 2 55 0 134 -3 175 -4 41 -7 82 -7 90 5 170 13 336 17
350 3 10 2 21 -3 24 -4 2 -5 30 -2 60 3 31 3 82 -1 114 -14 103 -17 227 -7
239 6 8 5 29 -5 65 -18 63 -21 164 -6 173 7 5 4 14 -7 26 -14 15 -16 31 -11
86 3 40 1 73 -6 84 -8 13 -7 21 6 34 19 18 23 70 7 80 -6 4 -8 16 -5 26 4 11
1 26 -5 34 -7 9 -9 23 -4 37 4 13 7 28 5 33 -2 6 -5 36 -7 67 -2 41 -9 63 -24
78 -11 11 -20 18 -20 15 0 -3 -8 -2 -17 4 -12 6 -25 4 -40 -6z m7 -39 c0 -8
-5 -12 -10 -9 -6 4 -8 11 -5 16 9 14 15 11 15 -7z m-2930 -1455 c0 -5 -4 -9
-10 -9 -5 0 -10 7 -10 16 0 8 5 12 10 9 6 -3 10 -10 10 -16z m20 -28 c0 -12
-20 -25 -27 -18 -7 7 6 27 18 27 5 0 9 -4 9 -9z m2768 -4160 c23 -2 12 -17
-24 -34 -28 -14 -39 -15 -50 -6 -8 6 -11 16 -7 22 4 6 -2 8 -18 4 -21 -5 -22
-5 -7 7 10 7 35 12 55 10 21 -2 44 -3 51 -3z m-258 -249 c0 -11 -22 -32 -33
-32 -5 0 -4 6 2 13 6 8 8 17 4 20 -3 4 1 7 10 7 10 0 17 -4 17 -8z m-96 -37
c-25 -19 -40 -19 -24 0 7 8 20 15 28 15 13 0 12 -3 -4 -15z m89 -28 c4 3 7 1
7 -5 0 -6 -24 -27 -54 -47 -30 -20 -60 -42 -66 -50 -14 -17 -56 -20 -65 -5 -3
6 2 13 12 17 23 9 42 33 43 56 0 21 20 23 20 2 0 -8 7 -15 15 -15 8 0 15 6 15
14 0 19 42 46 56 35 6 -5 14 -6 17 -2z m17 -137 c0 -5 -5 -10 -11 -10 -5 0 -7
5 -4 10 3 6 8 10 11 10 2 0 4 -4 4 -10z m-3995 -140 c-3 -5 -14 -10 -23 -9
-14 0 -13 2 3 9 27 11 27 11 20 0z m109 -78 c18 -10 -21 -22 -71 -22 -56 0
-83 7 -83 21 0 10 137 10 154 1z m2659 -79 c-7 -2 -21 -2 -30 0 -10 3 -4 5 12
5 17 0 24 -2 18 -5z m-806 -9 c-3 -3 -12 -4 -19 -1 -8 3 -5 6 6 6 11 1 17 -2
13 -5z m736 -11 c-7 -2 -19 -2 -25 0 -7 3 -2 5 12 5 14 0 19 -2 13 -5z"/>
<path d="M5275 11960 c-3 -5 1 -10 10 -10 9 0 13 5 10 10 -3 6 -8 10 -10 10
-2 0 -7 -4 -10 -10z"/>
<path d="M7985 11751 c-3 -5 -1 -12 5 -16 5 -3 10 1 10 9 0 18 -6 21 -15 7z"/>
<path d="M7960 11710 c0 -9 -3 -32 -7 -50 -4 -24 -3 -31 5 -26 7 4 12 2 12 -4
0 -6 5 -8 11 -4 8 4 7 9 -2 15 -11 6 -10 12 4 27 23 25 22 48 -3 55 -14 4 -20
0 -20 -13z"/>
<path d="M5630 10316 c0 -8 -10 -20 -22 -28 -20 -13 -21 -18 -10 -42 12 -27
36 -37 26 -11 -7 17 4 19 26 5 12 -7 12 -12 2 -22 -20 -20 -14 -29 21 -26 31
3 32 4 35 57 2 30 -1 58 -6 63 -16 16 -72 19 -72 4z"/>
<path d="M7950 9370 c0 -18 3 -19 20 -10 22 12 18 30 -6 30 -8 0 -14 -9 -14
-20z"/>
<path d="M5230 9174 c0 -8 5 -12 10 -9 6 4 8 11 5 16 -9 14 -15 11 -15 -7z"/>
<path d="M5630 8829 c0 -5 5 -7 10 -4 6 3 10 8 10 11 0 2 -4 4 -10 4 -5 0 -10
-5 -10 -11z"/>
<path d="M5630 8120 c0 -5 5 -10 10 -10 6 0 10 5 10 10 0 6 -4 10 -10 10 -5 0
-10 -4 -10 -10z"/>
<path d="M6430 7951 c0 -5 5 -13 10 -16 6 -3 10 -2 10 4 0 5 -4 13 -10 16 -5
3 -10 2 -10 -4z"/>
<path d="M3565 5940 c-5 -8 -20 -10 -42 -7 -28 5 -34 3 -29 -9 3 -9 6 -18 6
-21 0 -3 7 0 15 7 13 10 15 9 15 -12 0 -14 3 -27 6 -31 9 -9 44 16 44 30 0 7
5 13 10 13 6 0 10 -5 10 -12 0 -8 3 -9 10 -2 7 7 7 20 2 34 -6 17 -11 20 -17
11 -6 -10 -9 -10 -15 -1 -6 10 -9 10 -15 0z"/>
<path d="M3418 5923 c12 -2 30 -2 40 0 9 3 -1 5 -23 4 -22 0 -30 -2 -17 -4z"/>
<path d="M3430 5880 c-8 -5 -48 -18 -88 -31 -61 -18 -70 -24 -60 -36 7 -9 23
-13 39 -11 23 4 25 2 16 -13 -6 -10 -9 -20 -6 -23 12 -12 99 -7 144 8 28 10
56 19 64 22 10 3 4 13 -20 34 -29 24 -32 29 -16 35 9 4 17 11 17 16 0 14 -38
11 -44 -3 -5 -10 -7 -10 -12 0 -7 14 -13 14 -34 2z m7 -56 c-3 -3 -12 -4 -19
-1 -8 3 -5 6 6 6 11 1 17 -2 13 -5z"/>
<path d="M6665 5740 c-3 -5 -1 -10 4 -10 6 0 11 5 11 10 0 6 -2 10 -4 10 -3 0
-8 -4 -11 -10z"/>
<path d="M6127 5446 c-21 -18 -27 -30 -22 -45 3 -12 14 -21 23 -21 14 0 14 2
3 9 -15 10 -8 41 9 41 6 0 8 -4 5 -10 -11 -17 11 -11 28 8 13 14 14 21 5 30
-16 16 -19 16 -51 -12z"/>
<path d="M6600 5334 c0 -8 5 -12 10 -9 6 3 10 10 10 16 0 5 -4 9 -10 9 -5 0
-10 -7 -10 -16z"/>
<path d="M6575 5161 c-3 -5 -1 -12 5 -16 5 -3 10 1 10 9 0 18 -6 21 -15 7z"/>
<path d="M6696 3544 c-3 -9 -6 -17 -6 -18 0 -1 15 0 34 2 25 3 33 8 29 18 -7
19 -49 18 -57 -2z"/>
<path d="M6710 3380 c0 -5 5 -10 11 -10 5 0 7 5 4 10 -3 6 -8 10 -11 10 -2 0
-4 -4 -4 -10z"/>
<path d="M6715 130 c-3 -5 -2 -10 4 -10 5 0 13 5 16 10 3 6 2 10 -4 10 -5 0
-13 -4 -16 -10z"/>
</g>
</svg>
